…
Loading libraries and data

The data used throughout this post is from United Nations’ Population Divison and consists of population numbers of all countries between 1970 and 2015 (in intervals of 5 years).

library(tidyverse)
library(kani)
library(scales)
library(geofacet)

population_raw <- read_csv("../../static/data/population.csv")

population_raw

## # A tibble: 273 x 68
##    Country    code `1950` `1951` `1952` `1953` `1954` `1955` `1956` `1957`
##    <chr>     <int> <chr>  <chr>  <chr>  <chr>  <chr>  <chr>  <chr>  <chr> 
##  1 WORLD       900 2 536… 2 583… 2 630… 2 677… 2 724… 2 772… 2 821… 2 871…
##  2 More dev…   901 814 8… 824 2… 834 0… 844 2… 854 6… 865 0… 875 5… 885 9…
##  3 Less dev…   902 1 721… 1 759… 1 796… 1 832… 1 869… 1 907… 1 945… 1 986…
##  4 Least de…   941 195 2… 199 0… 202 9… 206 8… 211 0… 215 4… 220 0… 224 8…
##  5 Less dev…   934 1 526… 1 560… 1 593… 1 626… 1 658… 1 691… 1 725… 1 761…
##  6 Less dev…   948 1 157… 1 179… 1 203… 1 229… 1 256… 1 284… 1 314… 1 344…
##  7 High-inc…  1503 672 8… 680 6… 688 8… 697 4… 706 2… 715 2… 724 3… 733 4…
##  8 Middle-i…  1517 1 734… 1 772… 1 808… 1 844… 1 880… 1 916… 1 954… 1 992…
##  9 Upper-mi…  1502 956 2… 980 1… 1 001… 1 022… 1 041… 1 060… 1 079… 1 099…
## 10 Lower-mi…  1501 778 2… 792 1… 807 0… 822 6… 839 1… 856 4… 874 4… 893 2…
## # ... with 263 more rows, and 58 more variables: `1958` <chr>,
## #   `1959` <chr>, `1960` <chr>, `1961` <chr>, `1962` <chr>, `1963` <chr>,
## #   `1964` <chr>, `1965` <chr>, `1966` <chr>, `1967` <chr>, `1968` <chr>,
## #   `1969` <chr>, `1970` <chr>, `1971` <chr>, `1972` <chr>, `1973` <chr>,
## #   `1974` <chr>, `1975` <chr>, `1976` <chr>, `1977` <chr>, `1978` <chr>,
## #   `1979` <chr>, `1980` <chr>, `1981` <chr>, `1982` <chr>, `1983` <chr>,
## #   `1984` <chr>, `1985` <chr>, `1986` <chr>, `1987` <chr>, `1988` <chr>,
## #   `1989` <chr>, `1990` <chr>, `1991` <chr>, `1992` <chr>, `1993` <chr>,
## #   `1994` <chr>, `1995` <chr>, `1996` <chr>, `1997` <chr>, `1998` <chr>,
…
Tidying data

We can all fix this using some of the helper functions in the tidyverse package!

population <- population_raw %>%
  gather(`1950`:`2015`, key = "year", value = "population") %>%
  mutate(
    population = as.numeric(str_replace_all(population, " ", "")),
    year = as.numeric(year)
  )

population

## # A tibble: 18,018 x 4
##    Country                                           code  year population
##    <chr>                                            <int> <dbl>      <dbl>
##  1 WORLD                                              900  1950    2536275
##  2 More developed regions                             901  1950     814865
##  3 Less developed regions                             902  1950    1721410
##  4 Least developed countries                          941  1950     195259
##  5 Less developed regions, excluding least develop…   934  1950    1526151
##  6 Less developed regions, excluding China            948  1950    1157197
##  7 High-income countries                             1503  1950     672896
##  8 Middle-income countries                           1517  1950    1734481
##  9 Upper-middle-income countries                     1502  1950     956204
## 10 Lower-middle-income countries                     1501  1950     778277
## # ... with 18,008 more rows
…
But this was for one region in the entire dataset! How can we fit this model for all regions? Easy, we just use map() from the purrr package which lets us extend a function to different kinds of groups within the data which in this case are countries/regions. This can be done by first nesting all the yearly population changes for each country as a dataframe, fitting the desired function for each country, and then unnesting to get rates for all countries.

growth_rate <- function(df) {
  return(df %>% transmute(growth_rate = population/lag(population, 1) - 1))
}

population_growth <- population %>%
  group_by(Country) %>%
  nest() %>%
  mutate(growth = map(data, growth_rate)) %>%
  unnest()

population_growth

## # A tibble: 18,018 x 5
##    Country  code  year population growth_rate
##    <chr>   <int> <dbl>      <dbl>       <dbl>
##  1 WORLD     900  1950    2536275     NA     
##  2 WORLD     900  1951    2583817      0.0187
##  3 WORLD     900  1952    2630584      0.0181
##  4 WORLD     900  1953    2677230      0.0177
##  5 WORLD     900  1954    2724302      0.0176
##  6 WORLD     900  1955    2772243      0.0176
##  7 WORLD     900  1956    2821383      0.0177
##  8 WORLD     900  1957    2871952      0.0179
##  9 WORLD     900  1958    2924081      0.0182
## 10 WORLD     900  1959    2977825      0.0184
## # ... with 18,008 more rows
…
Where \(r\) is the growth rate of the region at time \(t\). We assume that human population growth follows a exponential curve that explains the \(\ln(2)\) component.

We can now use this and fit it to all regions described in the dataset.

population_rates <- population_growth %>%
  group_by(Country) %>%
  nest() %>%
  mutate(doubling_time = map(data, function(df) {return(log(2)/df$growth_rate)})) %>%
  unnest()

population_rates

## # A tibble: 18,018 x 6
##    Country doubling_time  code  year population growth_rate
##    <chr>           <dbl> <int> <dbl>      <dbl>       <dbl>
##  1 WORLD            NA     900  1950    2536275     NA     
##  2 WORLD            37.0   900  1951    2583817      0.0187
##  3 WORLD            38.3   900  1952    2630584      0.0181
##  4 WORLD            39.1   900  1953    2677230      0.0177
##  5 WORLD            39.4   900  1954    2724302      0.0176
##  6 WORLD            39.4   900  1955    2772243      0.0176
##  7 WORLD            39.1   900  1956    2821383      0.0177
##  8 WORLD            38.7   900  1957    2871952      0.0179
##  9 WORLD            38.2   900  1958    2924081      0.0182
## 10 WORLD            37.7   900  1959    2977825      0.0184
## # ... with 18,008 more rows
…
