…
The 15 NAs include the ones co-authored by Hamilton and Madison, these are Nos. 18-20. We remove them since we cannot determine which parts of the papers were written by which author. We also remove the ones written by Jay since the disputed papers are believed to be written by either Hamilton or Madison.

fed_papers <- federalist %>%
  replace_na(list(author = "Unknown")) %>%
  filter(!(name %in% paste("Federalist No.", as.character(18:20))), author != "Jay")

fed_papers

## # A tibble: 77 x 6
##    name              title  venue date       author text                  
##    <chr>             <chr>  <chr> <date>     <chr>  <chr>                 
##  1 Federalist No. 1  Gener… For … NA         Hamil… "To the People of the…
##  2 Federalist No. 6  Conce… For … NA         Hamil… "To the People of the…
##  3 Federalist No. 7  The S… For … NA         Hamil… "To the People of the…
##  4 Federalist No. 8  The C… From… 1787-11-20 Hamil… "To the People of the…
##  5 Federalist No. 9  The U… For … NA         Hamil… "To the People of the…
##  6 Federalist No. 10 The S… From… 1787-11-23 Madis… "To the People of the…
##  7 Federalist No. 11 The U… For … NA         Hamil… "To the People of the…
##  8 Federalist No. 12 The U… From… 1787-11-27 Hamil… "To the People of the…
##  9 Federalist No. 13 Advan… For … NA         Hamil… "To the People of the…
## 10 Federalist No. 14 Objec… From… 1787-11-30 Madis… "To the People of the…
## # ... with 67 more rows
…
# Make an author-paper mapping that can be used later.
fed_authors <- fed_papers %>%
  select(name, author)

fed_shingles <- fed_papers %>%
  select(name, text) %>%
  group_by(name) %>%
  unnest_tokens(shingle, text, "character_shingles") %>%
  ungroup()

fed_shingles %>%
  count(shingle) %>%
  arrange(-n)

## # A tibble: 6,067 x 2
##    shingle     n
##    <chr>   <int>
##  1 the     21697
##  2 ion      7321
##  3 tio      5976
##  4 ent      5388
##  5 oft      5139
##  6 and      5060
##  7 fth      5060
##  8 ati      3956
##  9 nth      3879
## 10 tha      3633
## # ... with 6,057 more rows

There are over 6000 different character trigrams in the whole corpus, but we don’t have to consider all the trigrams as features. Burrows’ Delta was defined to include the n most frequent words (since it was defined only for words), so we can include the n most frequent features, or trigrams in our analysis. Let’s pick an arbritrary number, say 1000 (if this was a research paper, we would have evaluated the proper number of features by looking at maybe the clustering quality by cliustering on the delta and choosing n where the rand index is maximum)

top_shingles <- fed_shingles %>%
  count(shingle) %>%
  top_n(1000, n)

top_shingles

## # A tibble: 1,004 x 2
##    shingle     n
##    <chr>   <int>
##  1 abl      1099
##  2 acc       239
##  3 ace       395
##  4 ach       483
##  5 aco       374
##  6 act       820
##  7 ade       428
##  8 adi       234
##  9 adm       290
## 10 adv       294
## # ... with 994 more rows

We can now filter all our documents in fed_shingles to have only the trigrams that are in the top 1000 trigrams of the entire corpus while simultaneously also computing the relative frequencies of the trigrams (do this prior to filtering).

fed_freq <- fed_shingles %>%
  count(name, shingle) %>%
  group_by(name) %>%
  mutate(rel_freq = n/sum(n)) %>%
  ungroup() %>%
  filter(shingle %in% top_shingles$shingle)

fed_freq

## # A tibble: 73,910 x 4
##    name             shingle     n rel_freq
##    <chr>            <chr>   <int>    <dbl>
##  1 Federalist No. 1 abl         9 0.00117 
##  2 Federalist No. 1 acc         2 0.000260
##  3 Federalist No. 1 ace         2 0.000260
##  4 Federalist No. 1 ach         1 0.000130
##  5 Federalist No. 1 act         5 0.000651
##  6 Federalist No. 1 ade         4 0.000520
##  7 Federalist No. 1 adi         3 0.000390
##  8 Federalist No. 1 adm         2 0.000260
##  9 Federalist No. 1 adv         3 0.000390
## 10 Federalist No. 1 aff         3 0.000390
## # ... with 73,900 more rows
…
Widyr essentially takes a long format data, widens it to something you normally see, a matrix format, performs the pairswise operation to return a pairwise matrix, and re-formats it into a long format to give item-item pairwise long tibble with the respective pairwise metric values.

fed_deltas <- fed_freq %>%
  pairwise_delta(name, shingle, rel_freq)

fed_deltas

## # A tibble: 5,852 x 3
##    item1             item2            delta
##    <chr>             <chr>            <dbl>
##  1 Federalist No. 10 Federalist No. 1 1.02 
##  2 Federalist No. 11 Federalist No. 1 1.07 
##  3 Federalist No. 12 Federalist No. 1 1.04 
##  4 Federalist No. 13 Federalist No. 1 1.18 
##  5 Federalist No. 14 Federalist No. 1 1.00 
##  6 Federalist No. 15 Federalist No. 1 0.948
##  7 Federalist No. 16 Federalist No. 1 1.06 
##  8 Federalist No. 17 Federalist No. 1 1.07 
##  9 Federalist No. 21 Federalist No. 1 1.03 
## 10 Federalist No. 22 Federalist No. 1 0.902
## # ... with 5,842 more rows
…
