…
It looks fairly balanced in terms of diversity in responses, no unknowns. We can look at differences in how employees who have been treated for mental health issues responded to some of the questions on the survey:

treatment <- mental_health %>%
  gather(Gender, self_employed, family_history, work_interfere, remote_work:obs_consequence, key = "question", value = "response") %>%
  select(question, response, treatment) %>%
  count(question, response, treatment) %>%
  spread(treatment, n) %>%
  mutate(total = No + Yes)

treatment %>%
  arrange(-Yes/total)

## # A tibble: 60 x 5
##    question        response              No   Yes total
##    <chr>           <chr>              <int> <int> <int>
##  1 work_interfere  Often                 21   119   140
##  2 Gender          gender_variance        3    12    15
##  3 work_interfere  Sometimes            107   357   464
##  4 family_history  Yes                  127   362   489
##  5 work_interfere  Rarely                51   122   173
##  6 obs_consequence Yes                   56   125   181
##  7 care_options    Yes                  136   303   439
##  8 Gender          female                77   170   247
##  9 leave           Very difficult        31    66    97
## 10 leave           Somewhat difficult    44    81   125
## # ... with 50 more rows
…
treatment_estimate <- treatment %>%
  add_ebb_estimate(Yes, total) %>%
  select(question,response, Yes, total, .raw, .fitted, .low, .high)

treatment_estimate

## # A tibble: 60 x 8
##    question     response     Yes total  .raw .fitted  .low .high
##    <chr>        <chr>      <int> <int> <dbl>   <dbl> <dbl> <dbl>
##  1 anonymity    Don't know   369   815 0.453   0.454 0.420 0.488
##  2 anonymity    No            37    64 0.578   0.569 0.456 0.678
##  3 anonymity    Yes          226   372 0.608   0.605 0.556 0.653
##  4 benefits     Don't know   151   407 0.371   0.375 0.329 0.422
##  5 benefits     No           179   371 0.482   0.483 0.434 0.534
##  6 benefits     Yes          302   473 0.638   0.636 0.592 0.678
##  7 care_options No           206   499 0.413   0.415 0.373 0.458
##  8 care_options Not sure     123   313 0.393   0.397 0.345 0.451
##  9 care_options Yes          303   439 0.690   0.686 0.642 0.728
## 10 coworkers    No           117   258 0.453   0.456 0.397 0.516
## # ... with 50 more rows
…
